{
  "url": "https://gitlab.com/agm650/salt-plugins",
  "description": "Salt syntax highlighting and snippets",
  "sublime_text": "*",
  "version": "0.3.2",
  "platforms": [
    "*"
  ],
  "dependencies": [

  ]
}
